{
  "project_info": {
    "project_id": "lokacart-admin-app",
    "project_number": "213232750254",
    "name": "Lokacart Admin App"
  },
  "client": [
    {
      "client_info": {
        "mobilesdk_app_id": "1:213232750254:android:a0c653eaf5c86325",
        "client_id": "android:admin.lokacart.ict.mobile.com.adminapp",
        "client_type": 1,
        "android_client_info": {
          "package_name": "admin.lokacart.ict.mobile.com.adminapp"
        }
      },
      "oauth_client": [],
      "api_key": [],
      "services": {
        "analytics_service": {
          "status": 1
        },
        "cloud_messaging_service": {
          "status": 2,
          "apns_config": []
        },
        "appinvite_service": {
          "status": 1,
          "other_platform_oauth_client": []
        },
        "google_signin_service": {
          "status": 1
        },
        "ads_service": {
          "status": 1
        }
      }
    }
  ],
  "client_info": [],
  "ARTIFACT_VERSION": "1"
}